%YAML 1.1
%TAG !u! tag:unity3d.com,2011:
--- !u!1045 &1
EditorBuildSettings:
  m_ObjectHideFlags: 0
  serializedVersion: 2
  m_Scenes:
  - enabled: 1
    path: Assets/Scenes/GameScenes/LoadingLogoScene.unity
    guid: 2f82eba800d3d484a8a1fe90b34a9f52
  - enabled: 1
    path: Assets/Scenes/GameScenes/LoginScene.unity
    guid: d27fe7f01efbd0443ad579292bec03d9
  - enabled: 1
    path: Assets/Scenes/GameScenes/MainGameScene.unity
    guid: 94693f8855804564c8c81c67fcd7b455
  - enabled: 1
    path: Assets/Scenes/MainScene.unity
    guid: 2cda990e2423bbf4892e6590ba056729
  m_configObjects: {}
