{
  "project_info": {
    "project_number": "375994267080",
    "firebase_url": "https://likecoinmaster.firebaseio.com",
    "project_id": "likecoinmaster",
    "storage_bucket": "likecoinmaster.appspot.com"
  },
  "client": [
    {
      "client_info": {
        "mobilesdk_app_id": "1:375994267080:android:963880c43e3d6644b97cfd",
        "android_client_info": {
          "package_name": "com.tintale.likecoinmaster"
        }
      },
      "oauth_client": [
        {
          "client_id": "375994267080-2gg1sj5td745p2gipr58927hlqot5dus.apps.googleusercontent.com",
          "client_type": 3
        }
      ],
      "api_key": [
        {
          "current_key": "AIzaSyAcqcMZ46FLBzii-NoOaXJlsb_w7qKHqJk"
        }
      ],
      "services": {
        "appinvite_service": {
          "other_platform_oauth_client": [
            {
              "client_id": "375994267080-2gg1sj5td745p2gipr58927hlqot5dus.apps.googleusercontent.com",
              "client_type": 3
            }
          ]
        }
      }
    }
  ],
  "configuration_version": "1"
}